2017-12-24 09:34:25.4048 INFO --- PROGRAM STARTED ---
2017-12-24 09:34:25.4338 DEBUG New instance of SerialPort() is initialized.
2017-12-24 09:34:25.4338 DEBUG All lists of settings objects are loaded.
2017-12-24 09:34:25.4338 DEBUG All default values are set. End of SerialCommViewModel() constructor!
2017-12-24 09:34:25.5904 INFO --- DevicedataGridViewModel:loaded ---
2017-12-24 09:34:25.5904 DEBUG All lists of settings objects are loaded.
2017-12-24 09:34:25.5904 DEBUG All default values are set. End of SerialCommViewModel() constructor!
2017-12-24 09:34:27.5505 INFO --- FileExportSettingsViewModel:loaded ---
2017-12-24 09:34:27.5720 DEBUG All lists of settings objects are loaded.
2017-12-24 09:34:27.5720 DEBUG All default values are set. End of SerialCommViewModel() constructor!
